-------------------------------------------------------------------------------
Test set: info.seleniumcucumber.RunCukeTest
-------------------------------------------------------------------------------
Tests run: 17, Failures: 0, Errors: 2, Skipped: 2, Time elapsed: 164.993 s <<< FAILURE! - in info.seleniumcucumber.RunCukeTest
And I fill the registration form(Scenario: Validae new user is created successfully)  Time elapsed: 0.036 s  <<< ERROR!
java.lang.NullPointerException

Scenario: Validae new user is created successfully  Time elapsed: 0.037 s  <<< ERROR!
java.lang.NullPointerException

