<?xml version="1.0" encoding="UTF-8"?>
<testsuite xmlns:xsi="http://www.w3.org/2001/XMLSchema-instance" xsi:noNamespaceSchemaLocation="https://maven.apache.org/surefire/maven-surefire-plugin/xsd/surefire-test-report-3.0.xsd" version="3.0" name="info.seleniumcucumber.RunCukeTest" time="164.993" tests="17" errors="2" skipped="2" failures="0">
  <properties>
    <property name="sun.desktop" value="windows"/>
    <property name="awt.toolkit" value="sun.awt.windows.WToolkit"/>
    <property name="file.encoding.pkg" value="sun.io"/>
    <property name="java.specification.version" value="1.8"/>
    <property name="sun.cpu.isalist" value="pentium_pro+mmx pentium_pro pentium+mmx pentium i486 i386 i86"/>
    <property name="sun.jnu.encoding" value="Cp1252"/>
    <property name="java.class.path" value="C:\Users\Sravanthi\git\selenium-cucumber-java-master\target\test-classes;C:\Users\Sravanthi\git\selenium-cucumber-java-master\target\classes;C:\Users\Sravanthi\.m2\repository\io\cucumber\cucumber-java\5.0.0-RC1\cucumber-java-5.0.0-RC1.jar;C:\Users\Sravanthi\.m2\repository\io\cucumber\cucumber-core\5.0.0-RC1\cucumber-core-5.0.0-RC1.jar;C:\Users\Sravanthi\.m2\repository\io\cucumber\gherkin\5.2.0\gherkin-5.2.0.jar;C:\Users\Sravanthi\.m2\repository\io\cucumber\gherkin-jvm-deps\1.0.6\gherkin-jvm-deps-1.0.6.jar;C:\Users\Sravanthi\.m2\repository\io\cucumber\tag-expressions\2.0.2\tag-expressions-2.0.2.jar;C:\Users\Sravanthi\.m2\repository\io\cucumber\cucumber-expressions\8.0.0\cucumber-expressions-8.0.0.jar;C:\Users\Sravanthi\.m2\repository\org\hamcrest\hamcrest-library\2.1\hamcrest-library-2.1.jar;C:\Users\Sravanthi\.m2\repository\io\cucumber\datatable\3.0.0\datatable-3.0.0.jar;C:\Users\Sravanthi\.m2\repository\io\cucumber\datatable-dependencies\3.0.0\datatable-dependencies-3.0.0.jar;C:\Users\Sravanthi\.m2\repository\io\cucumber\cucumber-plugin\5.0.0-RC1\cucumber-plugin-5.0.0-RC1.jar;C:\Users\Sravanthi\.m2\repository\io\cucumber\docstring\5.0.0-RC1\docstring-5.0.0-RC1.jar;C:\Users\Sravanthi\.m2\repository\org\apiguardian\apiguardian-api\1.1.0\apiguardian-api-1.1.0.jar;C:\Users\Sravanthi\.m2\repository\io\cucumber\cucumber-junit\5.0.0-RC1\cucumber-junit-5.0.0-RC1.jar;C:\Users\Sravanthi\.m2\repository\org\seleniumhq\selenium\selenium-java\2.53.0\selenium-java-2.53.0.jar;C:\Users\Sravanthi\.m2\repository\org\seleniumhq\selenium\selenium-chrome-driver\2.53.0\selenium-chrome-driver-2.53.0.jar;C:\Users\Sravanthi\.m2\repository\org\seleniumhq\selenium\selenium-remote-driver\2.53.0\selenium-remote-driver-2.53.0.jar;C:\Users\Sravanthi\.m2\repository\cglib\cglib-nodep\2.1_3\cglib-nodep-2.1_3.jar;C:\Users\Sravanthi\.m2\repository\com\google\code\gson\gson\2.3.1\gson-2.3.1.jar;C:\Users\Sravanthi\.m2\repository\org\seleniumhq\selenium\selenium-api\2.53.0\selenium-api-2.53.0.jar;C:\Users\Sravanthi\.m2\repository\org\apache\httpcomponents\httpclient\4.5.1\httpclient-4.5.1.jar;C:\Users\Sravanthi\.m2\repository\org\apache\httpcomponents\httpcore\4.4.3\httpcore-4.4.3.jar;C:\Users\Sravanthi\.m2\repository\commons-logging\commons-logging\1.2\commons-logging-1.2.jar;C:\Users\Sravanthi\.m2\repository\commons-codec\commons-codec\1.9\commons-codec-1.9.jar;C:\Users\Sravanthi\.m2\repository\com\google\guava\guava\19.0\guava-19.0.jar;C:\Users\Sravanthi\.m2\repository\org\seleniumhq\selenium\selenium-edge-driver\2.53.0\selenium-edge-driver-2.53.0.jar;C:\Users\Sravanthi\.m2\repository\commons-io\commons-io\2.4\commons-io-2.4.jar;C:\Users\Sravanthi\.m2\repository\org\apache\commons\commons-exec\1.3\commons-exec-1.3.jar;C:\Users\Sravanthi\.m2\repository\org\seleniumhq\selenium\selenium-firefox-driver\2.53.0\selenium-firefox-driver-2.53.0.jar;C:\Users\Sravanthi\.m2\repository\org\seleniumhq\selenium\selenium-ie-driver\2.53.0\selenium-ie-driver-2.53.0.jar;C:\Users\Sravanthi\.m2\repository\net\java\dev\jna\jna\4.1.0\jna-4.1.0.jar;C:\Users\Sravanthi\.m2\repository\net\java\dev\jna\jna-platform\4.1.0\jna-platform-4.1.0.jar;C:\Users\Sravanthi\.m2\repository\org\seleniumhq\selenium\selenium-safari-driver\2.53.0\selenium-safari-driver-2.53.0.jar;C:\Users\Sravanthi\.m2\repository\io\netty\netty\3.5.7.Final\netty-3.5.7.Final.jar;C:\Users\Sravanthi\.m2\repository\org\seleniumhq\selenium\selenium-support\2.53.0\selenium-support-2.53.0.jar;C:\Users\Sravanthi\.m2\repository\org\seleniumhq\selenium\selenium-leg-rc\2.53.0\selenium-leg-rc-2.53.0.jar;C:\Users\Sravanthi\.m2\repository\info\cukes\cucumber-junit\1.2.2\cucumber-junit-1.2.2.jar;C:\Users\Sravanthi\.m2\repository\info\cukes\cucumber-core\1.2.2\cucumber-core-1.2.2.jar;C:\Users\Sravanthi\.m2\repository\info\cukes\cucumber-html\0.2.3\cucumber-html-0.2.3.jar;C:\Users\Sravanthi\.m2\repository\info\cukes\cucumber-jvm-deps\1.0.3\cucumber-jvm-deps-1.0.3.jar;C:\Users\Sravanthi\.m2\repository\info\cukes\gherkin\2.12.2\gherkin-2.12.2.jar;C:\Users\Sravanthi\.m2\repository\info\cukes\cucumber-java\1.2.2\cucumber-java-1.2.2.jar;C:\Users\Sravanthi\.m2\repository\junit\junit\4.11\junit-4.11.jar;C:\Users\Sravanthi\.m2\repository\org\hamcrest\hamcrest-core\1.3\hamcrest-core-1.3.jar;"/>
    <property name="java.vm.vendor" value="Oracle Corporation"/>
    <property name="sun.arch.data.model" value="32"/>
    <property name="user.variant" value=""/>
    <property name="java.vendor.url" value="http://java.oracle.com/"/>
    <property name="user.timezone" value="Asia/Calcutta"/>
    <property name="java.vm.specification.version" value="1.8"/>
    <property name="os.name" value="Windows 7"/>
    <property name="user.country" value="GB"/>
    <property name="sun.java.launcher" value="SUN_STANDARD"/>
    <property name="sun.boot.library.path" value="C:\Program Files\Java\jdk1.8.0_111\jre\bin"/>
    <property name="sun.java.command" value="C:\Users\Sravanthi\AppData\Local\Temp\surefire601780874728244798\surefirebooter1663990841415722146.jar C:\Users\Sravanthi\AppData\Local\Temp\surefire601780874728244798 2019-11-30T00-39-01_015-jvmRun1 surefire1746367673081335656tmp surefire_06233028114779556891tmp"/>
    <property name="surefire.test.class.path" value="C:\Users\Sravanthi\git\selenium-cucumber-java-master\target\test-classes;C:\Users\Sravanthi\git\selenium-cucumber-java-master\target\classes;C:\Users\Sravanthi\.m2\repository\io\cucumber\cucumber-java\5.0.0-RC1\cucumber-java-5.0.0-RC1.jar;C:\Users\Sravanthi\.m2\repository\io\cucumber\cucumber-core\5.0.0-RC1\cucumber-core-5.0.0-RC1.jar;C:\Users\Sravanthi\.m2\repository\io\cucumber\gherkin\5.2.0\gherkin-5.2.0.jar;C:\Users\Sravanthi\.m2\repository\io\cucumber\gherkin-jvm-deps\1.0.6\gherkin-jvm-deps-1.0.6.jar;C:\Users\Sravanthi\.m2\repository\io\cucumber\tag-expressions\2.0.2\tag-expressions-2.0.2.jar;C:\Users\Sravanthi\.m2\repository\io\cucumber\cucumber-expressions\8.0.0\cucumber-expressions-8.0.0.jar;C:\Users\Sravanthi\.m2\repository\org\hamcrest\hamcrest-library\2.1\hamcrest-library-2.1.jar;C:\Users\Sravanthi\.m2\repository\io\cucumber\datatable\3.0.0\datatable-3.0.0.jar;C:\Users\Sravanthi\.m2\repository\io\cucumber\datatable-dependencies\3.0.0\datatable-dependencies-3.0.0.jar;C:\Users\Sravanthi\.m2\repository\io\cucumber\cucumber-plugin\5.0.0-RC1\cucumber-plugin-5.0.0-RC1.jar;C:\Users\Sravanthi\.m2\repository\io\cucumber\docstring\5.0.0-RC1\docstring-5.0.0-RC1.jar;C:\Users\Sravanthi\.m2\repository\org\apiguardian\apiguardian-api\1.1.0\apiguardian-api-1.1.0.jar;C:\Users\Sravanthi\.m2\repository\io\cucumber\cucumber-junit\5.0.0-RC1\cucumber-junit-5.0.0-RC1.jar;C:\Users\Sravanthi\.m2\repository\org\seleniumhq\selenium\selenium-java\2.53.0\selenium-java-2.53.0.jar;C:\Users\Sravanthi\.m2\repository\org\seleniumhq\selenium\selenium-chrome-driver\2.53.0\selenium-chrome-driver-2.53.0.jar;C:\Users\Sravanthi\.m2\repository\org\seleniumhq\selenium\selenium-remote-driver\2.53.0\selenium-remote-driver-2.53.0.jar;C:\Users\Sravanthi\.m2\repository\cglib\cglib-nodep\2.1_3\cglib-nodep-2.1_3.jar;C:\Users\Sravanthi\.m2\repository\com\google\code\gson\gson\2.3.1\gson-2.3.1.jar;C:\Users\Sravanthi\.m2\repository\org\seleniumhq\selenium\selenium-api\2.53.0\selenium-api-2.53.0.jar;C:\Users\Sravanthi\.m2\repository\org\apache\httpcomponents\httpclient\4.5.1\httpclient-4.5.1.jar;C:\Users\Sravanthi\.m2\repository\org\apache\httpcomponents\httpcore\4.4.3\httpcore-4.4.3.jar;C:\Users\Sravanthi\.m2\repository\commons-logging\commons-logging\1.2\commons-logging-1.2.jar;C:\Users\Sravanthi\.m2\repository\commons-codec\commons-codec\1.9\commons-codec-1.9.jar;C:\Users\Sravanthi\.m2\repository\com\google\guava\guava\19.0\guava-19.0.jar;C:\Users\Sravanthi\.m2\repository\org\seleniumhq\selenium\selenium-edge-driver\2.53.0\selenium-edge-driver-2.53.0.jar;C:\Users\Sravanthi\.m2\repository\commons-io\commons-io\2.4\commons-io-2.4.jar;C:\Users\Sravanthi\.m2\repository\org\apache\commons\commons-exec\1.3\commons-exec-1.3.jar;C:\Users\Sravanthi\.m2\repository\org\seleniumhq\selenium\selenium-firefox-driver\2.53.0\selenium-firefox-driver-2.53.0.jar;C:\Users\Sravanthi\.m2\repository\org\seleniumhq\selenium\selenium-ie-driver\2.53.0\selenium-ie-driver-2.53.0.jar;C:\Users\Sravanthi\.m2\repository\net\java\dev\jna\jna\4.1.0\jna-4.1.0.jar;C:\Users\Sravanthi\.m2\repository\net\java\dev\jna\jna-platform\4.1.0\jna-platform-4.1.0.jar;C:\Users\Sravanthi\.m2\repository\org\seleniumhq\selenium\selenium-safari-driver\2.53.0\selenium-safari-driver-2.53.0.jar;C:\Users\Sravanthi\.m2\repository\io\netty\netty\3.5.7.Final\netty-3.5.7.Final.jar;C:\Users\Sravanthi\.m2\repository\org\seleniumhq\selenium\selenium-support\2.53.0\selenium-support-2.53.0.jar;C:\Users\Sravanthi\.m2\repository\org\seleniumhq\selenium\selenium-leg-rc\2.53.0\selenium-leg-rc-2.53.0.jar;C:\Users\Sravanthi\.m2\repository\info\cukes\cucumber-junit\1.2.2\cucumber-junit-1.2.2.jar;C:\Users\Sravanthi\.m2\repository\info\cukes\cucumber-core\1.2.2\cucumber-core-1.2.2.jar;C:\Users\Sravanthi\.m2\repository\info\cukes\cucumber-html\0.2.3\cucumber-html-0.2.3.jar;C:\Users\Sravanthi\.m2\repository\info\cukes\cucumber-jvm-deps\1.0.3\cucumber-jvm-deps-1.0.3.jar;C:\Users\Sravanthi\.m2\repository\info\cukes\gherkin\2.12.2\gherkin-2.12.2.jar;C:\Users\Sravanthi\.m2\repository\info\cukes\cucumber-java\1.2.2\cucumber-java-1.2.2.jar;C:\Users\Sravanthi\.m2\repository\junit\junit\4.11\junit-4.11.jar;C:\Users\Sravanthi\.m2\repository\org\hamcrest\hamcrest-core\1.3\hamcrest-core-1.3.jar;"/>
    <property name="sun.cpu.endian" value="little"/>
    <property name="user.home" value="C:\Users\Sravanthi"/>
    <property name="user.language" value="en"/>
    <property name="java.specification.vendor" value="Oracle Corporation"/>
    <property name="java.home" value="C:\Program Files\Java\jdk1.8.0_111\jre"/>
    <property name="basedir" value="C:\Users\Sravanthi\git\selenium-cucumber-java-master"/>
    <property name="file.separator" value="\"/>
    <property name="line.separator" value="&#10;"/>
    <property name="java.vm.specification.vendor" value="Oracle Corporation"/>
    <property name="java.specification.name" value="Java Platform API Specification"/>
    <property name="java.awt.graphicsenv" value="sun.awt.Win32GraphicsEnvironment"/>
    <property name="surefire.real.class.path" value="C:\Users\Sravanthi\AppData\Local\Temp\surefire601780874728244798\surefirebooter1663990841415722146.jar"/>
    <property name="sun.boot.class.path" value="C:\Program Files\Java\jdk1.8.0_111\jre\lib\resources.jar;C:\Program Files\Java\jdk1.8.0_111\jre\lib\rt.jar;C:\Program Files\Java\jdk1.8.0_111\jre\lib\sunrsasign.jar;C:\Program Files\Java\jdk1.8.0_111\jre\lib\jsse.jar;C:\Program Files\Java\jdk1.8.0_111\jre\lib\jce.jar;C:\Program Files\Java\jdk1.8.0_111\jre\lib\charsets.jar;C:\Program Files\Java\jdk1.8.0_111\jre\lib\jfr.jar;C:\Program Files\Java\jdk1.8.0_111\jre\classes"/>
    <property name="user.script" value=""/>
    <property name="sun.management.compiler" value="HotSpot Client Compiler"/>
    <property name="java.runtime.version" value="1.8.0_111-b14"/>
    <property name="user.name" value="Sravanthi"/>
    <property name="path.separator" value=";"/>
    <property name="os.version" value="6.1"/>
    <property name="java.endorsed.dirs" value="C:\Program Files\Java\jdk1.8.0_111\jre\lib\endorsed"/>
    <property name="java.runtime.name" value="Java(TM) SE Runtime Environment"/>
    <property name="file.encoding" value="Cp1252"/>
    <property name="java.vm.name" value="Java HotSpot(TM) Client VM"/>
    <property name="localRepository" value="C:\Users\Sravanthi\.m2\repository"/>
    <property name="java.vendor.url.bug" value="http://bugreport.sun.com/bugreport/"/>
    <property name="java.io.tmpdir" value="C:\Users\SRAVAN~1\AppData\Local\Temp\"/>
    <property name="java.version" value="1.8.0_111"/>
    <property name="user.dir" value="C:\Users\Sravanthi\git\selenium-cucumber-java-master"/>
    <property name="os.arch" value="x86"/>
    <property name="java.vm.specification.name" value="Java Virtual Machine Specification"/>
    <property name="java.awt.printerjob" value="sun.awt.windows.WPrinterJob"/>
    <property name="sun.os.patch.level" value="Service Pack 1"/>
    <property name="java.library.path" value="C:\Program Files\Java\jdk1.8.0_111\jre\bin;C:\Windows\Sun\Java\bin;C:\Windows\system32;C:\Windows;C:/Program Files/Java/jre1.8.0_111/bin/client;C:/Program Files/Java/jre1.8.0_111/bin;C:/Program Files/Java/jre1.8.0_111/lib/i386;C:\oraclexe\app\oracle\product\11.2.0\server\bin;C:\ProgramData\Oracle\Java\javapath;C:\Windows\system32;C:\Windows;C:\Windows\System32\Wbem;C:\Windows\System32\WindowsPowerShell\v1.0\;C:\Program Files\Intel\OpenCL SDK\2.0\bin\x86;C:\Program Files\Java\jdk1.8.0_111\bin;C:\Program Files\apache-maven-3.3.9\bin;E:\SDK\build-tools\25.0.1;E:\SDK\platform-tools;E:\SDK\tools;C:\Program Files\nodejs;C:\Windows\system32\config\systemprofile\.dnx\bin;C:\Program Files\Microsoft DNX\Dnvm\;C:\Program Files\Git\cmd;C:\Program Files\Git\mingw32\bin;C:\Program Files\Git\usr\bin;C:\Program Files\VisualSVN Server\bin;C:\Users\Sravanthi\AppData\Roaming\npm;E:\eclipse\eclipse;;."/>
    <property name="java.vm.info" value="mixed mode"/>
    <property name="java.vendor" value="Oracle Corporation"/>
    <property name="java.vm.version" value="25.111-b14"/>
    <property name="java.ext.dirs" value="C:\Program Files\Java\jdk1.8.0_111\jre\lib\ext;C:\Windows\Sun\Java\lib\ext"/>
    <property name="sun.io.unicode.encoding" value="UnicodeLittle"/>
    <property name="java.class.version" value="52.0"/>
  </properties>
  <testcase name="Given I launch the application" classname="Scenario: Validae new user is created successfully" time="0.014"/>
  <testcase name="And I fill the registration form" classname="Scenario: Validae new user is created successfully" time="0.036">
    <error type="java.lang.NullPointerException">java.lang.NullPointerException
</error>
    <system-err><![CDATA[[1575054644.312][SEVERE]: Unable to receive message from renderer
]]></system-err>
  </testcase>
  <testcase name="Scenario: Validae new user is created successfully" classname="Scenario: Validae new user is created successfully" time="0.037">
    <error type="java.lang.NullPointerException">java.lang.NullPointerException
</error>
  </testcase>
  <testcase name="Then I validate that user is created successfully" classname="Scenario: Validae new user is created successfully" time="0">
    <skipped/>
  </testcase>
  <testcase name="And I close the browser" classname="Scenario: Validae new user is created successfully" time="0">
    <skipped/>
  </testcase>
  <testcase name="Given I launch the application" classname="| abc.test@gmail.com | test123@ |" time="0"/>
  <testcase name="And I enter valid &quot;abc.test@gmail.com&quot; and &quot;&lt;password&gt;&quot;" classname="| abc.test@gmail.com | test123@ |" time="0"/>
  <testcase name="Then I validate that user is logged in successfully" classname="| abc.test@gmail.com | test123@ |" time="0"/>
  <testcase name="And I close the browser" classname="| abc.test@gmail.com | test123@ |" time="0"/>
  <testcase name="| abc.test@gmail.com | test123@ |" classname="| abc.test@gmail.com | test123@ |" time="0.002"/>
  <testcase name="Given I launch the application" classname="| T-SHIRTS | abc.test@gmail.com | test23@ |" time="0"/>
  <testcase name="And I enter valid &quot;abc.test@gmail.com&quot; and &quot;test23@&quot;" classname="| T-SHIRTS | abc.test@gmail.com | test23@ |" time="0"/>
  <testcase name="And I click on &quot;T-SHIRTS&quot;" classname="| T-SHIRTS | abc.test@gmail.com | test23@ |" time="0"/>
  <testcase name="And I add item to cart" classname="| T-SHIRTS | abc.test@gmail.com | test23@ |" time="0"/>
  <testcase name="Then Validate product is added successfully" classname="| T-SHIRTS | abc.test@gmail.com | test23@ |" time="0"/>
  <testcase name="And I close the browser" classname="| T-SHIRTS | abc.test@gmail.com | test23@ |" time="0"/>
  <testcase name="| T-SHIRTS | abc.test@gmail.com | test23@ |" classname="| T-SHIRTS | abc.test@gmail.com | test23@ |" time="0.001"/>
</testsuite>